objid	container	server_template_crc	cell_index	px	py	pz	qw	qx	qy	qz	scripts	objvars
i	i	h	i	f	f	f	f	f	f	f	s	p
219	0	object/static/structure/naboo/nboo_imprv_pillar_pillar_s01.iff	0	947.446	80	1819.48	1	0	0	0		$|
220	0	object/static/structure/naboo/nboo_imprv_pillar_pillar_s01.iff	0	947.452	80	1809.94	1	0	0	0		$|
221	0	object/static/structure/naboo/gate_narrow_s01.iff	0	897.314	80	1816.2	0.707107	0	0.707107	0		$|
222	0	object/static/structure/naboo/nboo_imprv_pillar_pillar_s01.iff	0	897.289	80	1821.34	-3.20E-08	0	1	0		$|
223	0	object/static/structure/naboo/nboo_imprv_pillar_pillar_s01.iff	0	897.295	80	1811.06	-3.20E-08	0	1	0		$|
1379963	0	object/tangible/instrument/organ_max_rebo.iff	0	1065.82	80	1744.6	0.324043	0	0.946042	0		$|
1379964	0	object/tangible/speaker/speaker.iff	0	1070	80	1748.45	3.20E-08	0	1	0		$|
1379965	0	object/tangible/microphone/microphone.iff	0	1069.86	80	1745	0.50622	0	0.862404	0		$|
1379966	0	object/soundobject/soundobject_city_crowd_small.iff	0	1068.12	80	1746.44	1	0	0	0		$|
1379967	0	object/tangible/furniture/all/frn_bench_generic.iff	0	1027.09	80	1858.39	3.20E-08	0	1	0		$|
1379968	0	object/tangible/furniture/all/frn_bench_generic.iff	0	1021.63	80	1859.44	3.20E-08	0	1	0		$|
1379969	0	object/tangible/furniture/all/frn_bench_generic.iff	0	1010.22	80	1858.4	3.20E-08	0	1	0		$|
1379970	0	object/tangible/furniture/all/frn_bench_generic.iff	0	1027.05	80.0697	1909.15	1	0	0	0		$|
1379971	0	object/tangible/furniture/all/frn_bench_generic.iff	0	1010.22	80.0333	1909.18	1	0	0	0		$|
1379972	0	object/static/structure/naboo/poi_nboo_tent_small.iff	0	1040.37	80	1847.55	1	0	0	0		$|
1379973	0	object/static/item/item_medic_bacta_tank_advanced.iff	0	1041.37	80	1849.71	1	0	0	0		$|
1379974	0	object/static/item/item_medic_bacta_tank_advanced.iff	0	1041.42	80	1848.79	1	0	0	0		$|
1379975	0	object/static/structure/tatooine/debris_tatt_crate_1.iff	0	1041.35	80	1845.38	1	0	0	0		$|
1379976	0	object/static/structure/tatooine/debris_tatt_drum_dented_1.iff	0	1040.2	80	1844.77	1	0	0	0		$|
1379977	0	object/static/item/item_diagnostic_screen.iff	0	1040.02	81.1385	1845.06	0.968912	0	-0.247404	0		$|
1379979	0	object/static/item/item_bacta_ampules.iff	0	1041.12	80.7273	1845.46	0.710915	0	0	-0.703278		$|
1379980	0	object/static/item/item_bacta_ampules.iff	0	1041.11	80.7273	1845.38	0.710926	0	0	-0.703267		$|
1379982	0	object/static/item/item_container_organic_food.iff	0	1191.64	80.0319	1718.81	1	0	0	0		$|
1379983	0	object/static/item/item_container_organic_food.iff	0	1191.99	80.0011	1718.78	1	0	0	0		$|
1379984	0	object/static/item/item_container_organic_hide.iff	0	1193.42	79.9458	1719.5	1	0	0	0		$|
1379985	0	object/static/item/item_container_organic_hide.iff	0	1192.57	79.9885	1719.41	1	0	0	0		$|
1379986	0	object/static/item/item_jar_berries.iff	0	1193.57	79.9288	1720.25	1	0	0	0		$|
1379987	0	object/static/item/item_jar_bugs.iff	0	1192.93	79.9486	1719.87	1	0	0	0		$|
1379988	0	object/static/item/item_jar_guts.iff	0	1193.47	79.9278	1719.93	1	0	0	0		$|
1379991	0	object/tangible/camp/camp_tent_s2.iff	0	1192.02	79.8207	1725.41	0.422132	0	0.906534	0		$|
1379992	0	object/tangible/camp/camp_stool_tall.iff	0	1193.41	79.8771	1723.16	1	0	0	0		$|
1379993	0	object/tangible/camp/camp_cot.iff	0	1194.08	79.7878	1727.43	0.771246	0	0.636537	0		$|
1379995	0	object/static/structure/general/droid_r4_powerdown.iff	0	985.246	80	1771.7	0.990216	0	-0.139543	0		$|
1379996	0	object/static/structure/general/droid_r5_powerdown.iff	0	981.097	80	1770.39	0.891568	0	-0.452886	0		$|
1379997	0	object/static/structure/tatooine/debris_tatt_crate_1.iff	0	981.94	80	1769.02	1	0	0	0		$|
1379998	0	object/static/structure/tatooine/debris_tatt_crate_metal_1.iff	0	982.591	80	1768.13	0.96639	0	-0.257081	0		$|
1379999	0	object/static/item/item_tool_droid_toolkit.iff	0	981.945	80.6957	1768.82	0.685868	0	0.727726	0		$|
1380000	0	object/static/item/item_jar_berries.iff	0	982.611	80	1767.67	1	0	0	0		$|
1380001	0	object/static/item/item_jar_bugs.iff	0	982.75	80	1767.78	1	0	0	0		$|
1380002	0	object/static/item/item_jar_guts.iff	0	982.874	80	1767.9	1	0	0	0		$|
1380003	0	object/static/item/item_pistol.iff	0	982.637	80.3162	1768.02	0.735088	0	0	0.677972		$|
1380006	0	object/static/structure/tatooine/debris_tatt_drum_storage_1.iff	0	871.204	80	1670.14	1	0	0	0		$|
1380007	0	object/static/structure/tatooine/debris_tatt_crate_metal_1.iff	0	871.82	80	1670.79	0.913089	0	0.407761	0		$|
1380008	0	object/static/item/item_ryyk_blade.iff	0	871.523	80.9487	1670.22	0.685868	0	0	0.727726		$|
1380009	0	object/static/item/item_repair_melee_kit.iff	0	871.197	80	1670.77	1	0	0	0		$|
1380010	0	object/static/item/item_rifle.iff	0	871.867	80.3162	1670.45	0.700285	0	0	0.713864		$|
1380011	0	object/static/item/item_vibroknuckles.iff	0	871.302	80.9171	1669.97	0.674876	0	0	0.737931		$|
1380014	0	object/static/item/item_vibroaxe.iff	0	929.887	80.8222	1647.93	0.959662	0.281157	0	0		$|
1380017	0	object/static/item/item_wood_staff.iff	0	929.711	81.0752	1648.12	0.986418	0.164252	0	0		$|
1380018	0	object/static/item/item_ryyk_blade.iff	0	929.375	80.1897	1648.16	0.971338	0.237703	0	0		$|
1380020	0	object/static/item/item_axe.iff	0	929.271	80.0316	1647.88	-0.700285	0	0	0.713864		$|
1380021	0	object/tangible/furniture/tatooine/frn_tato_table_small_style_01.iff	0	987.807	79.9949	1858.32	1	0	0	0		$|
1380022	0	object/static/item/item_medic_bacta_tank.iff	0	988.191	80	1859.57	1	0	0	0		$|
1380023	0	object/static/item/item_bacta_ampules.iff	0	987.797	80.6233	1858.77	0.724836	-0.688922	0	0		$|
1380024	0	object/static/item/item_bacta_ampules.iff	0	987.731	80.6234	1858.8	0.724832	-0.688926	0	0		$|
1380025	0	object/static/item/item_diagnostic_screen.iff	0	988.034	80.6311	1858.07	0.488872	0	0.872355	0		$|
1380026	0	object/static/structure/general/droid_lemedical_powerdown.iff	0	988.965	80	1859.63	-3.20E-08	0	1	0		$|
1380027	0	object/static/structure/general/skeleton_human_head.iff	0	987.583	80.6239	1858.22	0.343646	0	0.939099	0		$|
1380042	0	object/static/item/item_ryyk_blade.iff	0	925.895	80.5816	1928.52	0.669356	0.292295	0.264224	0.62985		$|
1380043	0	object/static/item/item_katana.iff	0	925.925	80.5839	1928.58	0.700981	0.640058	-0.125389	0.288495		$|
1380044	0	object/static/item/item_container_energy_gas.iff	0	922.548	80.7181	1932.63	0.939373	0	-0.342898	0		$|
1380047	0	object/static/structure/tatooine/debris_tatt_drum_storage_2.iff	0	921.875	80.7405	1933.41	1	0	0	0		$|
1380048	0	object/static/structure/tatooine/debris_tatt_crate_metal_1.iff	0	923.542	80.6586	1933.44	0.953847	0	0.300293	0		$|
1380049	0	object/static/structure/tatooine/debris_tatt_drum_storage_1.iff	0	932.526	80.4186	1929.3	1	0	0	0		$|
1380051	0	object/tangible/furniture/all/frn_all_toolchest_lg_s01.iff	0	892.504	79.9352	1734.5	0.707389	0	0.706824	0		$|
1380052	0	object/tangible/furniture/modern/bar_counter_s1.iff	0	895.156	80	1731.34	0.707107	0	-0.707106	0		$|
1380055	0	object/static/item/item_repair_melee_kit.iff	0	895.279	81.1068	1732.17	1	0	0	0		$|
1380057	0	object/static/item/item_container_energy_solid.iff	0	891.714	80	1730.72	1	0	0	0		$|
1380058	0	object/static/item/item_container_organic_structure.iff	0	891.8	80	1731.59	1	0	0	0		$|
1380059	0	object/static/item/item_container_energy_liquid.iff	0	892.529	80	1731.11	1	0	0	0		$|
1380060	0	object/static/structure/naboo/poi_nboo_tent_small.iff	0	894.585	80	1733.21	1	0	0	0		$|
1380065	0	object/tangible/furniture/technical/cabinet_s01.iff	0	1003.21	79.9952	1578.31	0.685579	0	0.727998	0		$|
1380066	0	object/tangible/furniture/technical/chest_s01.iff	0	1003.75	80	1577.24	0.962425	0	0.271547	0		$|
1380068	0	object/static/item/item_carbine_dh17.iff	0	1003.17	80.759	1578.19	0.71791	0	0	-0.696136		$|
1380069	0	object/static/item/item_carbine_dh17.iff	0	1003.11	80.759	1578.43	0.684777	0.215584	0.209045	0.664006		$|
1380070	0	object/static/item/item_carbine_dh17.iff	0	1004.16	80.0632	1577.66	0.673972	-0.19016	-0.193847	0.68704		$|
1380071	0	object/static/item/item_con_barrel_lg_s1.iff	0	1004.08	80	1583.08	1	0	0	0		$|
1380073	0	object/tangible/camp/camp_crate_s1.iff	0	973.579	80	1558.2	1	0	0	0		$|
1380074	0	object/tangible/camp/camp_spit_s2.iff	0	975.043	80.0027	1562.92	-0.696707	0	0.717356	0		$|
1380076	0	object/tangible/camp/camp_chair_s3.iff	0	969.956	80.0006	1558.23	0.00579642	0	0.999983	0		$|
1380079	0	object/tangible/camp/camp_tent_s3.iff	0	971.68	80.0226	1561.64	0.707107	0	-0.707106	0		$|
1380082	0	object/tangible/camp/camp_crate_s1.iff	0	974.253	80.0321	1557.59	0.926798	0	-0.375559	0		$|
1380083	0	object/tangible/camp/campfire_logs_ash.iff	0	978.122	80.0124	1558.34	1	0	0	0		$|
1380086	0	object/static/item/item_vibroaxe.iff	0	864.258	80.8538	1771.1	0.949235	0.314567	0	0		$|
1380087	0	object/static/item/item_vibrolance.iff	0	863.942	80.8855	1771.33	0.984727	0.174108	0	0		$|
1380088	0	object/static/item/item_wood_staff.iff	0	864.505	81.0436	1771.08	0.959662	0.281157	0	0		$|
1380089	0	object/static/item/item_container_energy_radioactive.iff	0	863.285	80	1770.83	1	0	0	0		$|
1380091	0	object/static/item/item_container_energy_liquid.iff	0	863.695	80	1769.46	1	0	0	0		$|
1380092	0	object/static/item/item_container_energy_liquid.iff	0	863.396	80	1769.47	1	0	0	0		$|
1380094	0	object/static/item/item_rifle.iff	0	930.163	80.0632	1721.37	0.569417	0	0	0.822049		$|
1380095	0	object/static/item/item_rifle.iff	0	929.899	80.0316	1721.32	0.569417	0	0	0.822049		$|
1380097	0	object/static/item/item_container_energy_liquid.iff	0	926.794	80	1725.18	1	0	0	0		$|
1380098	0	object/static/item/item_container_energy_liquid.iff	0	927.16	80	1725.16	1	0	0	0		$|
1380099	0	object/static/item/item_carbine_dh17.iff	0	930.366	80.0316	1721.59	0.780707	0	0	0.624897		$|
1380103	0	object/static/item/item_rocket_launcher.iff	0	961.959	80.0316	1744.18	0.696085	-0.265989	-0.238039	0.622939		$|
1380104	0	object/static/item/item_ammo_rocket.iff	0	961.947	80.0949	1744.54	1	0	0	0		$|
1380105	0	object/static/item/item_ammo_rocket.iff	0	962.007	80.0632	1744.57	1	0	0	0		$|
1380106	0	object/static/item/item_ammo_rocket.iff	0	961.856	80.0632	1744.54	1	0	0	0		$|
1380107	0	object/static/item/item_ammo_rocket.iff	0	961.97	80.0632	1744.53	1	0	0	0		$|
1380108	0	object/static/item/item_ammo_rocket.iff	0	961.96	80.0632	1744.63	1	0	0	0		$|
1380110	0	object/static/item/item_rifle.iff	0	962.484	80.0316	1744.25	0.707386	0	0	0.706828		$|
1380112	0	object/static/structure/tatooine/debris_tatt_drum_storage_1.iff	0	900.013	80	1640.45	1	0	0	0		$|
1380113	0	object/static/item/item_container_energy_liquid.iff	0	900.661	80.0949	1640.87	0.7248	-0.688887	-0.0068891	0.00724824		$|
1380114	0	object/static/item/item_pistol.iff	0	899.923	80.9171	1640.17	0.693111	0	0	0.720831		$|
1380115	0	object/static/item/item_pistol.iff	0	899.749	80.8855	1640.78	0.161923	0.673932	0.700885	0.168399		$|
1380116	0	object/static/item/item_pistol.iff	0	900.325	80.9171	1640.63	0.693111	0	0	0.720831		$|
1380117	0	object/static/item/item_pistol.iff	0	900.176	80.9171	1640.31	0.674859	-0.158014	-0.164333	0.701849		$|
1380120	0	object/static/structure/naboo/poi_nboo_tent_hut_s01.iff	0	856.266	79.2996	1582.13	-0.124675	0	0.992198	0		$|
1380121	0	object/tangible/camp/camp_cot_s2.iff	0	854.547	79.0868	1584.47	0.390152	0	0.920751	0		$|
2666243	0	object/static/structure/naboo/streetlamp_naboo_theed_style_1.iff	0	887.622	79.9995	1603.15	1	0	0	0		$|
2666244	0	object/static/structure/naboo/streetlamp_naboo_theed_style_1.iff	0	958.927	80	1590.8	1	0	0	0		$|
3175602	0	object/tangible/terminal/terminal_mission_bounty.iff	0	913.614	80	1860.23	0.0107962	0	0.999942	0		$|
3375595	0	object/tangible/sign/all_sign_city_s02.iff	0	1191.32	80.0182	1752.88	0.707107	0	0.707107	0		$|
3375596	0	object/tangible/sign/all_sign_city_s02.iff	0	1159.43	80	1667.91	-3.20E-08	0	1	0		$|
3375597	0	object/tangible/sign/all_sign_city_s02.iff	0	1087.29	80	1605.85	0.707107	0	0.707107	0		$|
3625376	0	object/static/item/item_medical_console.iff	0	1039.94	81.1701	1844.64	0.707108	0	-0.707106	0		$|
3625377	0	object/static/item/item_medic_bag.iff	0	1041.43	79.9684	1845.89	0.984727	-0.174108	0	0		$|
3625378	0	object/static/item/item_medic_stimpack.iff	0	1041.63	80.7351	1844.93	0.741831	0	0	0.670587		$|
3625379	0	object/static/item/item_medic_stimpack.iff	0	1041.47	80.7259	1844.99	0.741831	0	0	0.670587		$|
3625380	0	object/static/item/item_medic_stimpack.iff	0	1041.31	80.7218	1845	0.741831	0	0	0.670587		$|
3625383	0	object/static/item/item_bowl_plain.iff	0	961.94	80	1744.6	1	0	0	0		$|
3625384	0	object/static/item/item_bottle_tall.iff	0	963.57	80	1748.12	1	0	0	0		$|
3625385	0	object/static/item/item_con_ration_kit_lg.iff	0	963.672	80	1748.42	0.965092	0	0.261909	0		$|
3625402	0	object/static/item/item_ryyk_blade.iff	0	925.839	80.574	1929.09	-0.394071	0.620534	0.572317	-0.363453		$|
3625403	0	object/static/item/item_katana.iff	0	925.813	80.608	1929.33	-0.622905	0.716266	0.285376	0.132334		$|
4615353	0	object/building/naboo/bank_naboo.iff	0	1033.75	79.7197	1621.34	0.707108	0	0.707106	0		$|
4615364	0	object/static/structure/naboo/gate_narrow_s01.iff	0	1023.31	80	1680.72	1	0	0	0		$|
4615365	0	object/static/structure/naboo/gate_narrow_s01.iff	0	1023.31	80	1662.72	-3.20E-08	0	1	0		$|
4615366	0	object/building/naboo/guild_combat_naboo_style_01.iff	0	944	80	1666	1	0	0	0		$|
4615376	0	object/building/naboo/guild_commerce_naboo_style_01.iff	0	944	80	1758	-3.20E-08	0	1	0		$|
4615389	0	object/static/structure/naboo/nboo_imprv_pristine_wall_large_s01.iff	0	971	80	1654	0.707108	0	0.707105	0		$|
4615390	0	object/static/structure/naboo/nboo_imprv_pristine_wall_large_s02.iff	0	971	80	1700	0.707108	0	0.707106	0		$|
4615391	0	object/static/structure/naboo/nboo_imprv_pristine_wall_large_s02.iff	0	971	80	1724	-0.707106	0	0.707107	0		$|
4615392	0	object/static/structure/naboo/nboo_imprv_pristine_wall_large_s01.iff	0	971	80	1675	0.707108	0	0.707105	0		$|
4615393	0	object/static/structure/naboo/nboo_imprv_pillar_pillar_s01.iff	0	971	80	1674	1	0	0	0		$|
4615394	0	object/static/structure/naboo/nboo_imprv_pillar_pillar_s01.iff	0	971	80	1695	1	0	0	0		$|
4615395	0	object/static/structure/naboo/archway_narrow_s02.iff	0	971	80	1712	0.707108	0	0.707106	0		$|
4615396	0	object/static/structure/naboo/nboo_imprv_pillar_pillar_s01.iff	0	971	80	1709	1	0	0	0		$|
4615397	0	object/static/structure/naboo/nboo_imprv_pillar_pillar_s01.iff	0	971	80	1715	1	0	0	0		$|
4615398	0	object/static/structure/naboo/archway_narrow_s02.iff	0	971	80	1698	0.707115	0	0.707098	0		$|
4615399	0	object/static/structure/naboo/nboo_imprv_pillar_pillar_s01.iff	0	971	80	1701	1	0	0	0		$|
4615400	0	object/static/structure/naboo/archway_narrow_s02.iff	0	971	80	1727	0.707115	0	0.707098	0		$|
4615401	0	object/static/structure/naboo/nboo_imprv_pillar_pillar_s01.iff	0	971	80	1730	1	0	0	0		$|
4615402	0	object/static/structure/naboo/nboo_imprv_pillar_pillar_s01.iff	0	971	80	1724	1	0	0	0		$|
4615403	0	object/static/structure/naboo/nboo_imprv_pristine_wall_large_s01.iff	0	971	80	1752	0.707107	0	0.707107	0		$|
4615404	0	object/static/structure/naboo/nboo_imprv_pillar_pillar_s01.iff	0	971	80	1751	1	0	0	0		$|
4615405	0	object/static/structure/naboo/nboo_imprv_pristine_wall_large_s01.iff	0	971	80	1731	0.707107	0	0.707107	0		$|
4635352	0	object/static/structure/naboo/archway_narrow_s02.iff	0	1062.79	80	1731.44	0.707119	0	0.707094	0		$|
4635353	0	object/static/structure/naboo/nboo_imprv_pillar_pillar_s01.iff	0	1062.79	80	1728.44	1	0	0	0		$|
4635355	0	object/static/structure/naboo/nboo_imprv_pristine_wall_large_s01.iff	0	1062.79	80	1735.44	0.707107	0	0.707107	0		$|
4635357	0	object/static/structure/naboo/nboo_imprv_pillar_pillar_s01.iff	0	1062.79	80	1734.44	1	0	0	0		$|
4635358	0	object/static/structure/naboo/nboo_imprv_pillar_pillar_s01.iff	0	1062.79	80	1719.44	1	0	0	0		$|
4635359	0	object/static/structure/naboo/archway_narrow_s02.iff	0	1062.79	80	1716.44	0.707107	0	0.707107	0		$|
4635360	0	object/static/structure/naboo/nboo_imprv_pristine_wall_large_s02.iff	0	1062.79	80	1728.44	-0.707106	0	0.707107	0		$|
4635361	0	object/static/structure/naboo/nboo_imprv_pillar_pillar_s01.iff	0	1062.79	80	1713.44	1	0	0	0		$|
4635362	0	object/static/structure/naboo/nboo_imprv_pillar_pillar_s01.iff	0	1062.79	80	1705.44	1	0	0	0		$|
4635363	0	object/static/structure/naboo/nboo_imprv_pristine_wall_large_s02.iff	0	1062.79	80	1704.44	0.707107	0	0.707107	0		$|
4635364	0	object/static/structure/naboo/archway_narrow_s02.iff	0	1062.79	80	1702.44	0.707119	0	0.707094	0		$|
4635365	0	object/static/structure/naboo/nboo_imprv_pillar_pillar_s01.iff	0	1062.79	80	1699.44	1	0	0	0		$|
4635366	0	object/static/structure/naboo/nboo_imprv_pristine_wall_large_s01.iff	0	1062.79	80	1679.44	0.707107	0	0.707107	0		$|
4635386	0	object/static/structure/naboo/nboo_imprv_pillar_pillar_s01.iff	0	971	80	1772	1	0	0	0		$|
4635391	0	object/static/structure/naboo/gate_wide_s01.iff	0	1015.29	80	1774.04	-3.20E-08	0	1	0		$|
4635394	0	object/static/structure/naboo/gate_wide_s01.iff	0	1015.29	80	1785.04	1	0	0	0		$|
4635395	0	object/building/naboo/guild_theater_naboo_s01.iff	0	1115	80	1760	1	0	0	0		$|
4635406	0	object/building/naboo/guild_university_naboo_style_01.iff	0	1133	80	1678	1	0	0	0		$|
4635433	0	object/building/naboo/starport_naboo.iff	0	771.562	80	1935.45	0.382683	0	0.92388	0	structure.municipal.starport	travel.air_time|0|60|travel.cost|0|150|travel.ground_time|0|300|travel.point_name|4|Narmle Starport|travel.shuttle_available|0|1|travel.version|0|3|$|
4635477	0	object/building/naboo/shuttleport_naboo.iff	0	902.73	80.6642	1948.51	0.92388	0	-0.382683	0	structure.municipal.starport:planet_map.map_loc	travel.cost|0|200|travel.ground_time|0|300|travel.is_shuttleport|0|1|travel.point_name|4|Narmle Shuttleport A|travel.shuttle_available|0|1|travel.version|0|3|$|
4635487	0	object/building/naboo/hotel_naboo_theed.iff	0	1014.5	80	1725.21	1	0	0	0		$|
4635513	0	object/static/structure/naboo/nboo_imprv_pristine_wall_large_s02.iff	0	1053	80	1786	1	0	0	0		$|
4635514	0	object/static/structure/naboo/nboo_imprv_pillar_pillar_s01.iff	0	1053	80	1786	1	0	0	0		$|
4635515	0	object/static/structure/naboo/nboo_imprv_pillar_pillar_s01.iff	0	1043	80	1786	1	0	0	0		$|
4635516	0	object/building/naboo/association_hall_civilian_naboo.iff	0	952.131	80	1615.16	0.707107	0	0.707106	0		$|
4635541	0	object/building/naboo/cloning_facility_naboo.iff	0	1118.98	80	1612.61	0.707108	0	0.707105	0		$|
4635555	0	object/static/structure/naboo/archway_wide_s02.iff	0	1174	80	1745	0.707107	0	-0.707106	0		$|
4635556	0	object/static/structure/naboo/archway_wide_s02.iff	0	1188	80	1745	-0.707107	0	0.707107	0		$|
4635560	0	object/static/structure/naboo/nboo_imprv_pristine_wall_large_s01.iff	0	1182	80	1766	0.707107	0	0.707106	0		$|
4635561	0	object/static/structure/naboo/nboo_imprv_pillar_pillar_s01.iff	0	1182	80	1785	1	0	0	0		$|
4635575	0	object/static/structure/naboo/nboo_imprv_pillar_pillar_s01.iff	0	1159.47	80	1669.94	0.707109	0	0.707105	0		$|
4635577	0	object/static/structure/naboo/archway_narrow_s02.iff	0	1156.47	80	1669.94	2.03E-05	0	1	0		$|
4635578	0	object/static/structure/naboo/nboo_imprv_pillar_pillar_s01.iff	0	1153.47	80	1669.94	0.707109	0	0.707105	0		$|
4635581	0	object/static/structure/naboo/nboo_imprv_pillar_pillar_s01.iff	0	1085.37	80	1606.02	4.95E-07	0	1	0		$|
4635582	0	object/static/structure/naboo/archway_narrow_s02.iff	0	1085.33	80	1603.03	-0.707093	0	0.707121	0		$|
4635583	0	object/static/structure/naboo/nboo_imprv_pillar_pillar_s01.iff	0	1085.33	80	1600.02	4.95E-07	0	1	0		$|
4635584	0	object/static/structure/naboo/nboo_imprv_pristine_wall_large_s02.iff	0	1085.05	80	1638.68	0.707107	0	0.707106	0		$|
4635585	0	object/static/structure/naboo/nboo_imprv_pristine_wall_large_s02.iff	0	1085.69	80	1590.05	0.707108	0	0.707106	0		$|
4635586	0	object/static/structure/naboo/nboo_imprv_pristine_wall_large_s02.iff	0	1085.37	80	1606.02	0.707108	0	0.707105	0		$|
4635587	0	object/building/naboo/parking_garage_naboo_style_1.iff	0	910.194	79.7968	1616.27	-3.20E-08	0	1	0		$|
4635589	0	object/building/naboo/hotel_naboo_theed.iff	0	858	80	1795	1	0	0	0	theme_park.dungeon.generic_spawner	spawn_table|4|datatables/spawning/clone_relic/ep3_narmle_hotel.iff|$|
4695516	0	object/static/structure/tatooine/antenna_tatt_style_1.iff	0	827.278	80.1368	1869.84	0.382683	0	0.92388	0		$|
4695517	0	object/static/structure/tatooine/antenna_tatt_style_1.iff	0	837.428	80.155	1880.05	0.92388	0	-0.382683	0		$|
4695518	0	object/static/structure/naboo/nboo_imprv_pillar_pillar_s03.iff	0	886	78.63	1817	1	0	0	0		$|
4695519	0	object/static/structure/naboo/nboo_imprv_pillar_pillar_s03.iff	0	830	78.63	1817	1	0	0	0		$|
4695520	0	object/static/structure/naboo/nboo_imprv_short_curved_wall_large_s01.iff	0	886	80	1818	0.707107	0	-0.707106	0		$|
4695521	0	object/static/structure/naboo/nboo_imprv_pillar_pillar_s03.iff	0	877	78.63	1826	1	0	0	0		$|
4695522	0	object/static/structure/naboo/nboo_imprv_short_curved_wall_large_s01.iff	0	838	80.202	1826	-3.20E-08	0	1	0		$|
4695523	0	object/static/structure/naboo/nboo_imprv_pillar_pillar_s03.iff	0	839	78.63	1826	1	0	0	0		$|
4695524	0	object/static/structure/naboo/planter_naboo_theed_style_2.iff	0	835.807	80.175	1820.09	-0.219436	0	0.975627	0		$|
4695525	0	object/tangible/terminal/terminal_mission.iff	0	843.178	80.0342	1814.7	1	0	0	0		$|
4695535	0	object/tangible/terminal/terminal_mission.iff	0	872.977	80	1814.7	1	0	0	0		$|
4695537	0	object/static/structure/naboo/planter_naboo_theed_style_2.iff	0	880.384	80	1820.48	0.791567	0	0.611083	0		$|
4695539	0	object/static/structure/naboo/gungan_damaged_wall_lg_s01.iff	0	815.773	79.8279	1984.09	0.971244	0	0.238087	0		$|
4695540	0	object/static/structure/naboo/gungan_damaged_narrow_arch_s01.iff	0	823.171	80	1998.28	0.971244	0	0.238087	0		$|
4695541	0	object/static/structure/naboo/gungan_cleft_wall_lg_s01.iff	0	805.209	80	1994.11	0.518428	0	0.855121	0		$|
4695542	0	object/static/structure/naboo/gungan_damaged_wall_lg_s01.iff	0	801.817	80	2004.9	0.518428	0	0.855122	0		$|
4695545	0	object/static/structure/naboo/gungan_damaged_wide_arch_s01.iff	0	807.944	80	1997.19	0.971244	0	0.238087	0		$|
4695546	0	object/static/structure/naboo/gungan_damaged_wall_lg_s01.iff	0	808.908	80	2001.2	0.855127	0	-0.518418	0		$|
4695547	0	object/static/structure/naboo/gungan_cleft_wall_lg_s01.iff	0	819.472	79.8249	1991.18	0.971243	0	0.23809	0		$|
4695548	0	object/static/structure/naboo/gungan_cleft_wall_lg_s01.iff	0	821.475	80	2003.67	0.518419	0	0.855127	0		$|
4695549	0	object/static/structure/naboo/gungan_damaged_wall_lg_s01.iff	0	789.326	80	2006.91	0.971243	0	0.23809	0		$|
4695550	0	object/static/structure/naboo/gungan_cleft_wall_lg_s01.iff	0	806.904	80	1988.71	0.971244	0	0.238087	0		$|
4695552	0	object/static/structure/naboo/gungan_cleft_wall_lg_s01.iff	0	798.115	80	1997.81	0.855128	0	-0.518417	0		$|
4695553	0	object/static/structure/naboo/gungan_damaged_wall_lg_s01.iff	0	785.625	80	1999.81	0.971243	0	0.238089	0		$|
4695554	0	object/static/structure/naboo/gungan_damaged_wall_lg_s01.iff	0	814.381	80	2007.37	0.518418	0	0.855127	0		$|
4695555	0	object/static/structure/naboo/gungan_damaged_narrow_arch_s01.iff	0	816.001	80	1997.5	0.518418	0	0.855127	0		$|
4695556	0	object/static/structure/naboo/gungan_damaged_narrow_arch_s01.iff	0	810.604	80	1995.81	0.971244	0	0.238087	0		$|
4695557	0	object/static/structure/naboo/gungan_damaged_wide_arch_s01.iff	0	808.986	80	2005.68	-0.238089	0	0.971244	0		$|
4695558	0	object/static/structure/naboo/gungan_damaged_narrow_arch_s01.iff	0	805.286	80	1998.58	0.971244	0	0.238087	0		$|
4695559	0	object/static/structure/naboo/gungan_damaged_narrow_arch_s01.iff	0	802.625	80	1999.97	-0.238091	0	0.971243	0		$|
4695560	0	object/static/structure/naboo/gungan_damaged_wide_arch_s01.iff	0	799.967	80	2001.36	0.971244	0	0.238087	0		$|
4695561	0	object/static/structure/naboo/gungan_damaged_narrow_arch_s01.iff	0	797.306	80	2002.74	0.971244	0	0.238087	0		$|
4695563	0	object/static/structure/naboo/gungan_pillar_damaged_s01.iff	0	820.433	80	1995.19	0.518418	0	0.855127	0		$|
4695564	0	object/static/structure/naboo/gungan_statue_s02.iff	0	813.303	80	1996.66	0.518418	0	0.855127	0		$|
4695565	0	object/static/structure/naboo/gungan_statue_s04.iff	0	811.453	80	1993.11	0.518418	0	0.855127	0		$|
4695566	0	object/static/structure/naboo/gungan_cleft_wall_lg_s01.iff	0	794.723	80	2008.6	0.855127	0	-0.518418	0		$|
4695568	0	object/static/structure/naboo/gungan_damaged_narrow_arch_s01.iff	0	791.022	80	2001.51	0.855127	0	-0.518418	0		$|
4695569	0	object/tangible/terminal/terminal_mission.iff	0	811.958	80	1983.43	0.949235	0	0.314567	0		$|
4695571	0	object/tangible/terminal/terminal_mission.iff	0	809.519	80	1985.29	0.949235	0	0.314567	0		$|
4695638	0	object/static/structure/naboo/gungan_damaged_wall_lg_s01.iff	0	718.426	80	1995.72	0.92388	0	0.382683	0		$|
4695639	0	object/static/structure/naboo/gungan_damaged_narrow_arch_s01.iff	0	703.577	80	1997.84	0.923879	0	-0.382684	0		$|
4695640	0	object/static/structure/naboo/gungan_cleft_wall_lg_s01.iff	0	712.769	80	1990.06	0.923884	0	0.382672	0		$|
4695641	0	object/static/structure/naboo/gungan_damaged_wall_lg_s01.iff	0	700.042	80	1988.65	0.923884	0	0.382673	0		$|
4695644	0	object/static/structure/naboo/gungan_damaged_wide_arch_s01.iff	0	709.234	80	1992.18	0.923879	0	-0.382684	0		$|
4695645	0	object/static/structure/naboo/gungan_damaged_wall_lg_s01.iff	0	705.698	80	1994.31	-0.382683	0	0.92388	0		$|
4695646	0	object/static/structure/naboo/gungan_cleft_wall_lg_s01.iff	0	718.426	80	2001.38	0.92388	0	-0.382683	0		$|
4695647	0	object/static/structure/naboo/gungan_cleft_wall_lg_s01.iff	0	703.577	80	2003.5	0.92388	0	0.382683	0		$|
4695648	0	object/static/structure/naboo/gungan_damaged_wall_lg_s01.iff	0	694.384	80	1977.34	0.92388	0	-0.382683	0		$|
4695649	0	object/static/structure/naboo/gungan_cleft_wall_lg_s01.iff	0	717.012	80	1988.65	0.923879	0	-0.382684	0		$|
4695651	0	object/static/structure/naboo/gungan_cleft_wall_lg_s01.iff	0	707.112	80	1984.41	-0.382684	0	0.923879	0		$|
4695653	0	object/static/structure/naboo/gungan_damaged_wall_lg_s01.iff	0	697.919	80	1997.84	0.92388	0	0.382683	0		$|
4695654	0	object/static/structure/naboo/gungan_damaged_narrow_arch_s01.iff	0	711.355	80	1999.96	0.92388	0	0.382683	0		$|
4695655	0	object/static/structure/naboo/gungan_damaged_narrow_arch_s01.iff	0	711.355	80	1994.31	0.923879	0	-0.382684	0		$|
4695656	0	object/static/structure/naboo/gungan_damaged_wide_arch_s01.iff	0	701.456	80	1995.72	0.382684	0	0.923879	0		$|
4695657	0	object/static/structure/naboo/gungan_damaged_narrow_arch_s01.iff	0	707.112	80	1990.06	0.923879	0	-0.382684	0		$|
4695658	0	object/static/structure/naboo/gungan_damaged_narrow_arch_s01.iff	0	704.991	80	1987.94	0.382683	0	0.92388	0		$|
4695659	0	object/static/structure/naboo/gungan_damaged_wide_arch_s01.iff	0	702.869	80	1985.82	0.923879	0	-0.382684	0		$|
4695660	0	object/static/structure/naboo/gungan_damaged_narrow_arch_s01.iff	0	700.749	80	1983.7	0.923879	0	-0.382684	0		$|
4695661	0	object/static/structure/naboo/gungan_pillar_damaged_s01.iff	0	721.961	80	1996.43	-0.382683	0	0.92388	0		$|
4695662	0	object/static/structure/naboo/gungan_pillar_damaged_s01.iff	0	714.891	80	2003.5	0.92388	0	0.382683	0		$|
4695663	0	object/static/structure/naboo/gungan_statue_s02.iff	0	711.355	80	1997.13	0.92388	0	0.382683	0		$|
4695664	0	object/static/structure/naboo/gungan_statue_s04.iff	0	714.184	80	1994.31	0.92388	0	0.382683	0		$|
4695665	0	object/static/structure/naboo/gungan_cleft_wall_lg_s01.iff	0	694.384	80	1982.99	-0.382683	0	0.92388	0		$|
4695667	0	object/static/structure/naboo/gungan_damaged_narrow_arch_s01.iff	0	701.456	80	1978.75	-0.382683	0	0.92388	0		$|
4695668	0	object/static/structure/naboo/gungan_damaged_narrow_arch_s01.iff	0	705.698	80	1999.96	0.92388	0	-0.382683	0		$|
4695669	0	object/static/structure/naboo/gungan_damaged_narrow_arch_s01.iff	0	699.334	80	1993.6	0.382684	0	0.923879	0		$|
4695670	0	object/static/structure/naboo/gungan_damaged_narrow_arch_s01.iff	0	697.213	80	1991.48	0.92388	0	-0.382683	0		$|
4695671	0	object/static/structure/naboo/gungan_damaged_wide_arch_s01.iff	0	695.091	80	1989.36	0.92388	0	-0.382683	0		$|
4695672	0	object/static/structure/naboo/gungan_cleft_wall_lg_s01.iff	0	692.264	80	1992.18	-0.382683	0	0.92388	0		$|
4695673	0	object/static/structure/naboo/gungan_pillar_damaged_s01.iff	0	723.376	80	1995.01	0.92388	0	-0.382683	0		$|
4695674	0	object/static/structure/naboo/gungan_pillar_ruined_s01.iff	0	724.79	80	1993.6	0.382684	0	0.923879	0		$|
4695675	0	object/static/structure/naboo/gungan_statue_s02.iff	0	705.698	80	2002.79	0.92388	0	0.382683	0		$|
4695676	0	object/static/structure/naboo/gungan_statue_s04.iff	0	708.526	80	1999.96	0.92388	0	0.382683	0		$|
4695677	0	object/static/structure/naboo/gungan_pillar_damaged_s01.iff	0	707.112	80	2007.03	-0.382683	0	0.92388	0		$|
4695678	0	object/static/structure/naboo/gungan_pillar_damaged_s01.iff	0	708.526	80	2008.45	0.92388	0	0.382683	0		$|
4695679	0	object/static/structure/naboo/gungan_pillar_damaged_s01.iff	0	709.94	80	2009.86	0.382684	0	0.923879	0		$|
4695680	0	object/static/structure/naboo/gungan_pillar_damaged_s01.iff	0	697.92	80	1975.21	-0.382683	0	0.92388	0		$|
4695681	0	object/static/structure/naboo/gungan_damaged_wall_lg_s01.iff	0	688.728	80	1982.99	0.92388	0	-0.382683	0		$|
4695682	0	object/static/structure/naboo/gungan_pillar_damaged_s01.iff	0	689.434	80	1989.36	0.92388	0	-0.382683	0		$|
4695683	0	object/static/structure/naboo/gungan_pillar_damaged_s01.iff	0	685.899	80	1985.82	-0.382683	0	0.92388	0		$|
4695685	0	object/static/structure/naboo/gungan_pillar_damaged_s01.iff	0	715.598	80	2004.21	-0.382683	0	0.92388	0		$|
4695686	0	object/static/structure/naboo/gungan_pillar_damaged_s01.iff	0	714.184	80	2005.62	0.382684	0	0.923879	0		$|
4695687	0	object/static/structure/naboo/gungan_pillar_damaged_s01.iff	0	711.355	80	2008.45	0.92388	0	-0.382683	0		$|
4695696	0	object/tangible/terminal/terminal_bazaar.iff	0	712.433	80	1982.15	0.92388	0	-0.382683	0		$|
4695697	0	object/tangible/terminal/terminal_bazaar.iff	0	706.861	80	1976.23	0.92388	0	-0.382683	0		$|
4695698	0	object/tangible/terminal/terminal_bazaar.iff	0	709.432	80	1978.71	0.92388	0	-0.382683	0		$|
4695699	0	object/tangible/terminal/terminal_bazaar.iff	0	715.43	80	1985.16	0.92388	0	-0.382683	0		$|
4695701	0	object/tangible/crafting/station/public_structure_station.iff	0	797.954	80	1995.89	-0.240324	0	0.970693	0		$|
4695702	0	object/tangible/crafting/station/public_structure_station.iff	0	801.319	80	1994.22	-0.240324	0	0.970693	0		$|
4695703	0	object/tangible/crafting/station/public_structure_station.iff	0	804.65	80	1992.39	-0.240324	0	0.970693	0		$|
4695704	0	object/static/structure/naboo/gungan_sacred_head_s01.iff	0	688.169	77.5292	1976.6	-0.630061	0.26383	0.724097	0.0953903		$|
4695705	0	object/static/structure/naboo/fountain_naboo_style_1.iff	0	785.364	79.7766	1850.17	1	0	0	0		$|
4695706	0	object/static/structure/naboo/gate_narrow_s01.iff	0	947.439	80	1814.87	0.707108	0	-0.707106	0		$|
4695718	0	object/static/structure/naboo/elevated_walkway_cap_s01.iff	0	1008	80	1809	1	0	0	0		$|
4695720	0	object/static/structure/naboo/enclosed_walkway_s01.iff	0	1013	80	1809	1	0	0	0		$|
4695721	0	object/static/structure/naboo/enclosed_walkway_s01.iff	0	1030	80	1826	0.707107	0	0.707106	0		$|
4695722	0	object/static/structure/naboo/elevated_walkway_corner_s01.iff	0	1022	80	1809	-3.20E-08	0	1	0		$|
4695723	0	object/static/structure/naboo/elevated_walkway_cap_s01.iff	0	1018	80	1809	1	0	0	0		$|
4695724	0	object/static/structure/naboo/elevated_walkway_cap_s01.iff	0	1030	80	1821	0.707107	0	0.707106	0		$|
4695725	0	object/static/structure/naboo/elevated_walkway_cap_s01.iff	0	1030	80	1831	0.707107	0	-0.707106	0		$|
4695726	0	object/static/structure/naboo/elevated_walkway_corner_s01.iff	0	1030	80	1835	0.707107	0	0.707106	0		$|
4695727	0	object/static/structure/naboo/enclosed_walkway_s01.iff	0	1013	80	1843	1	0	0	0		$|
4695728	0	object/static/structure/naboo/elevated_walkway_cap_s01.iff	0	1018	80	1843	1	0	0	0		$|
4695729	0	object/static/structure/naboo/elevated_walkway_corner_s01.iff	0	1004	80	1843	1	0	0	0		$|
4695730	0	object/static/structure/naboo/bridge_stairs_s01.iff	0	996	80	1826.18	0.707107	0	-0.707106	0		$|
4695731	0	object/static/structure/naboo/bridge_stairs_s01.iff	0	1004	80	1809	1	0	0	0		$|
4695732	0	object/static/structure/naboo/elevated_walkway_cap_s01.iff	0	1008	80	1843	1	0	0	0		$|
4695733	0	object/static/structure/naboo/elevated_walkway_cap_s01.iff	0	996	80	1830.18	0.707107	0	0.707106	0		$|
4695734	0	object/static/structure/naboo/planter_naboo_theed_style_1.iff	0	1002.84	80	1835.54	-0.558044	0	0.829812	0		$|
4695735	0	object/static/structure/naboo/planter_naboo_theed_style_2.iff	0	1022	80	1816	1	0	0	0		$|
4695736	0	object/static/structure/naboo/planter_naboo_theed_style_1.iff	0	1022.81	80	1835.76	-0.146415	0	0.989223	0		$|
4695737	0	object/static/structure/naboo/planter_naboo_theed_style_1.iff	0	1023	80	1816	-0.32255	0	0.946552	0		$|
4695738	0	object/static/structure/naboo/obelisk_naboo_theed_style_2.iff	0	1032	80	1749	1	0	0	0		$|
4695739	0	object/tangible/terminal/terminal_mission.iff	0	1032	80	1750	1	0	0	0		$|
4695745	0	object/tangible/terminal/terminal_mission.iff	0	1032	80	1748	-3.20E-08	0	1	0		$|
4695747	0	object/tangible/terminal/terminal_mission.iff	0	997	79.8475	1750	1	0	0	0		$|
4695753	0	object/tangible/terminal/terminal_mission.iff	0	997	79.849	1748	0	0	1	0		$|
4695755	0	object/static/structure/naboo/obelisk_naboo_theed_style_2.iff	0	997	80	1749	1	0	0	0		$|
4725481	0	object/tangible/terminal/terminal_bazaar.iff	0	1055.68	80.39	1621.28	0.707107	0	-0.707106	0		$|
4725482	0	object/tangible/terminal/terminal_bazaar.iff	0	1011.78	80.3233	1621.41	0.707107	0	0.707107	0		$|
4735352	0	object/static/structure/naboo/nboo_imprv_pillar_lattice_s01.iff	0	979.991	80	1756.53	1	0	0	0		$|
4735353	0	object/static/structure/naboo/nboo_imprv_lattice_wall_long_s01.iff	0	976	80	1753	-3.20E-08	0	1	0		$|
4735354	0	object/static/structure/naboo/nboo_imprv_lattice_wall_short_s01.iff	0	979.992	80	1754.71	0.707107	0	0.707106	0		$|
4735355	0	object/static/structure/naboo/nboo_imprv_lattice_wall_long_s01.iff	0	980.001	80	1767.92	0.707107	0	-0.707106	0		$|
4735356	0	object/tangible/crafting/station/public_food_station.iff	0	972.479	80	1757.68	0.707108	0	0.707105	0		$|
4735358	0	object/tangible/crafting/station/public_food_station.iff	0	972.675	80	1766.89	0.707108	0	0.707106	0		$|
4735360	0	object/static/structure/naboo/streetlamp_naboo_theed_style_1.iff	0	979.521	80	1753.79	1	0	0	0		$|
4735377	0	object/static/structure/naboo/nboo_imprv_tall_curved_wall_large_s01.iff	0	957	80	1701	0.707107	0	-0.707106	0		$|
4735378	0	object/static/structure/naboo/nboo_imprv_pillar_pillar_s02.iff	0	957	80	1700	0.707107	0	0.707106	0		$|
4735380	0	object/static/structure/naboo/nboo_imprv_tall_curved_wall_large_s01.iff	0	939	80	1709	4.11E-07	0	1	0		$|
4735382	0	object/static/structure/naboo/nboo_imprv_pillar_pillar_s02.iff	0	931	80	1700	0.707107	0	0.707106	0		$|
4735383	0	object/static/structure/naboo/nboo_imprv_tall_curved_wall_large_s01.iff	0	931	80	1723	0.707105	0	0.707108	0		$|
4735384	0	object/static/structure/naboo/nboo_imprv_pillar_pillar_s02.iff	0	931	80	1724	-0.707105	0	0.707108	0		$|
4735386	0	object/static/structure/naboo/nboo_imprv_tall_curved_wall_large_s01.iff	0	949	80	1715	1	0	0	0		$|
4735388	0	object/static/structure/naboo/nboo_imprv_pillar_pillar_s02.iff	0	957	80	1724	-0.707105	0	0.707108	0		$|
4735389	0	object/static/structure/naboo/planter_naboo_theed_style_2.iff	0	937	80	1703	0.272813	0	0.962067	0		$|
4735390	0	object/static/structure/naboo/planter_naboo_theed_style_2.iff	0	951	80	1703	0.95075	0	0.309958	0		$|
4735391	0	object/static/structure/naboo/planter_naboo_theed_style_2.iff	0	951	80	1721	0.95075	0	0.309958	0		$|
4735392	0	object/static/structure/naboo/planter_naboo_theed_style_2.iff	0	937	80	1721	0.272813	0	0.962067	0		$|
4735393	0	object/static/structure/naboo/nboo_imprv_pillar_pillar_s01.iff	0	948	80	1709	1	0	0	0		$|
4735394	0	object/static/structure/naboo/nboo_imprv_pillar_pillar_s01.iff	0	940	80	1709	1	0	0	0		$|
4735395	0	object/static/structure/naboo/nboo_imprv_pillar_pillar_s01.iff	0	948	80	1715	1	0	0	0		$|
4735396	0	object/static/structure/naboo/nboo_imprv_pillar_pillar_s01.iff	0	940	80	1715	1	0	0	0		$|
4735397	0	object/static/structure/naboo/archway_narrow_s01.iff	0	940	80	1712	0.707107	0	0.707106	0		$|
4735398	0	object/static/structure/naboo/archway_narrow_s01.iff	0	948	80	1712	0.707107	0	0.707106	0		$|
4735399	0	object/static/structure/naboo/nboo_imprv_metal_fence_wall_lg_s02.iff	0	865	80	1681	0.707108	0	-0.707106	0		$|
4735400	0	object/static/structure/naboo/nboo_imprv_metal_fence_wall_lg_s01.iff	0	866	80	1681	1	0	0	0		$|
4735402	0	object/static/structure/naboo/nboo_imprv_metal_fence_wall_lg_s02.iff	0	865	80	1687	0.707107	0	-0.707106	0		$|
4735403	0	object/static/structure/naboo/nboo_imprv_metal_fence_wall_lg_s02.iff	0	865	80	1693	0.707107	0	-0.707106	0		$|
4735404	0	object/static/structure/naboo/nboo_imprv_metal_fence_wall_lg_s02.iff	0	865	80	1699	-0.707107	0	0.707107	0		$|
4735405	0	object/static/structure/naboo/nboo_imprv_metal_fence_wall_lg_s02.iff	0	865	80	1744	0.707107	0	0.707106	0		$|
4735406	0	object/static/structure/naboo/nboo_imprv_metal_fence_wall_lg_s02.iff	0	865	80	1738	0.707107	0	0.707107	0		$|
4735407	0	object/static/structure/naboo/nboo_imprv_metal_fence_wall_lg_s02.iff	0	865	80	1732	0.707107	0	0.707107	0		$|
4735409	0	object/static/structure/naboo/nboo_imprv_metal_fence_wall_lg_s02.iff	0	865	80	1726	0.707107	0	0.707107	0		$|
4735410	0	object/static/structure/naboo/nboo_imprv_metal_fence_wall_lg_s02.iff	0	865	80	1720	0.707107	0	0.707107	0		$|
4735411	0	object/static/structure/naboo/gate_narrow_s02.iff	0	865	80	1711	0.707107	0	0.707107	0		$|
4735412	0	object/static/structure/naboo/nboo_imprv_metal_fence_wall_lg_s01.iff	0	865	80	1705	-0.707106	0	0.707107	0		$|
4735413	0	object/static/structure/naboo/gate_narrow_s02.iff	0	874	80	1744	-3.48E-07	0	1	0		$|
4735414	0	object/static/structure/naboo/nboo_imprv_metal_fence_wall_lg_s02.iff	0	882.031	80	1744.04	-3.20E-08	0	1	0		$|
4735415	0	object/static/structure/naboo/gate_narrow_s02.iff	0	872	80	1681	1	0	0	0		$|
4735416	0	object/static/structure/naboo/nboo_imprv_metal_fence_wall_lg_s02.iff	0	881	80	1681	-3.20E-08	0	1	0		$|
4785353	0	object/static/structure/naboo/nboo_imprv_metal_fence_wall_lg_s02.iff	0	866	80	1744	1	0	0	0		$|
4785354	0	object/static/structure/naboo/nboo_imprv_lattice_wall_long_s01.iff	0	872	80	1715	1	0	0	0		$|
4785355	0	object/static/structure/naboo/nboo_imprv_pillar_lattice_s01.iff	0	877	80	1715	1	0	0	0		$|
4785356	0	object/static/structure/naboo/nboo_imprv_lattice_wall_long_s01.iff	0	872	80	1707	1	0	0	0		$|
4785357	0	object/static/structure/naboo/nboo_imprv_pillar_lattice_s01.iff	0	877	80	1707	1	0	0	0		$|
4785358	0	object/tangible/crafting/station/public_clothing_station.iff	0	876	80	1736	1	0	0	0		$|
4785359	0	object/static/structure/naboo/nboo_imprv_lattice_wall_long_s01.iff	0	878	80	1736	0.707107	0	0.707106	0		$|
4785360	0	object/static/structure/naboo/nboo_imprv_pillar_lattice_s01.iff	0	878	80	1731	0.707107	0	0.707106	0		$|
4785361	0	object/static/structure/naboo/nboo_imprv_lattice_wall_long_s01.iff	0	878	80	1724	0.707107	0	0.707107	0		$|
4785362	0	object/static/structure/naboo/nboo_imprv_pillar_lattice_s01.iff	0	878	80	1719	0.707107	0	0.707107	0		$|
4785363	0	object/static/structure/naboo/nboo_imprv_lattice_wall_long_s01.iff	0	868	80	1736	0.707107	0	0.707107	0		$|
4785364	0	object/static/structure/naboo/nboo_imprv_pillar_lattice_s01.iff	0	868	80	1731	0.707107	0	0.707107	0		$|
4785365	0	object/static/structure/naboo/nboo_imprv_lattice_wall_long_s01.iff	0	868	80	1724	0.707107	0	0.707107	0		$|
4785366	0	object/static/structure/naboo/nboo_imprv_pillar_lattice_s01.iff	0	868	80	1719	0.707107	0	0.707107	0		$|
4785367	0	object/tangible/crafting/station/public_clothing_station.iff	0	876	80	1723	1	0	0	0		$|
4785368	0	object/tangible/crafting/station/public_clothing_station.iff	0	870	80	1736	-3.20E-08	0	1	0		$|
4785369	0	object/tangible/crafting/station/public_clothing_station.iff	0	870	80	1723	0	0	1	0		$|
4785370	0	object/static/structure/naboo/nboo_imprv_pillar_lattice_s01.iff	0	877	80	1683	0.707107	0	0.707107	0		$|
4785371	0	object/static/structure/naboo/nboo_imprv_lattice_wall_long_s01.iff	0	877	80	1688	0.707107	0	0.707107	0		$|
4785372	0	object/static/structure/naboo/nboo_imprv_pillar_lattice_s01.iff	0	868	80	1683	0.707107	0	0.707107	0		$|
4785373	0	object/static/structure/naboo/nboo_imprv_lattice_wall_long_s01.iff	0	868	80	1688	0.707107	0	0.707107	0		$|
4785374	0	object/static/structure/naboo/nboo_imprv_pillar_lattice_s01.iff	0	868	80	1695	0.707107	0	0.707107	0		$|
4785375	0	object/static/structure/naboo/nboo_imprv_lattice_wall_long_s01.iff	0	868	80	1700	0.707107	0	0.707107	0		$|
4785376	0	object/static/structure/naboo/nboo_imprv_pillar_lattice_s01.iff	0	877	80	1695	0.707107	0	0.707107	0		$|
4785377	0	object/static/structure/naboo/nboo_imprv_lattice_wall_long_s01.iff	0	877	80	1700	0.707107	0	0.707107	0		$|
4785378	0	object/tangible/crafting/station/public_weapon_station.iff	0	876	80	1698	0.707107	0	-0.707106	0		$|
4785379	0	object/tangible/crafting/station/public_weapon_station.iff	0	876	80	1686	-0.707107	0	0.707107	0		$|
4785380	0	object/tangible/crafting/station/public_weapon_station.iff	0	869.128	80	1689.02	0.707107	0	0.707107	0		$|
4785381	0	object/tangible/crafting/station/public_weapon_station.iff	0	869.122	80	1700.96	0.707107	0	0.707107	0		$|
4785385	0	object/static/structure/naboo/nboo_imprv_pillar_pillar_s01.iff	0	1002.66	80	1608.36	1	0	0	0		$|
4785386	0	object/static/structure/naboo/archway_wide_s01.iff	0	1002.66	80	1599.36	-0.707104	0	0.707108	0		$|
4785387	0	object/static/structure/naboo/nboo_imprv_pillar_pillar_s01.iff	0	1002.66	80	1590.36	-0.707108	0	0.707107	0		$|
4785388	0	object/static/structure/naboo/nboo_imprv_pillar_pillar_s01.iff	0	1020.66	80	1590.36	-7.48E-07	0	1	0		$|
4785389	0	object/static/structure/naboo/archway_wide_s01.iff	0	1011.66	80	1590.36	-7.48E-07	0	1	0		$|
4785390	0	object/static/structure/naboo/nboo_imprv_pillar_pillar_s01.iff	0	1002.75	80	1652.42	1	0	0	0		$|
4785391	0	object/static/structure/naboo/nboo_imprv_pillar_pillar_s01.iff	0	1020.59	80	1652.01	0.707107	0	0.707106	0		$|
4785392	0	object/static/structure/naboo/archway_wide_s01.iff	0	1011.75	80	1652.42	1	0	0	0		$|
4785393	0	object/static/structure/naboo/archway_wide_s01.iff	0	1002.75	80	1643.42	0.707108	0	-0.707105	0		$|
4785394	0	object/static/structure/naboo/nboo_imprv_pillar_pillar_s01.iff	0	1002.75	80	1634.42	0.707108	0	-0.707105	0		$|
4785395	0	object/static/structure/naboo/nboo_imprv_pillar_pillar_s01.iff	0	1064.83	80	1652.29	0.707107	0	0.707108	0		$|
4785396	0	object/static/structure/naboo/nboo_imprv_pillar_pillar_s01.iff	0	1064.83	80	1634.29	-3.20E-08	0	1	0		$|
4785397	0	object/static/structure/naboo/archway_wide_s01.iff	0	1064.83	80	1643.29	0.707119	0	0.707093	0		$|
4785398	0	object/static/structure/naboo/archway_wide_s01.iff	0	1055.83	80	1652.29	1	0	0	0		$|
4785399	0	object/static/structure/naboo/nboo_imprv_pillar_pillar_s01.iff	0	1046.83	80	1652.29	1	0	0	0		$|
4785400	0	object/static/structure/naboo/nboo_imprv_pillar_pillar_s01.iff	0	1064.76	80	1590.26	3.48E-07	0	1	0		$|
4785401	0	object/static/structure/naboo/nboo_imprv_pillar_pillar_s01.iff	0	1046.76	80	1590.26	0.707107	0	-0.707106	0		$|
4785402	0	object/static/structure/naboo/archway_wide_s01.iff	0	1055.76	80	1590.26	1.78E-06	0	0.999999	0		$|
4785403	0	object/static/structure/naboo/archway_wide_s01.iff	0	1064.76	80	1599.26	0.707106	0	0.707107	0		$|
4785404	0	object/static/structure/naboo/nboo_imprv_pillar_pillar_s01.iff	0	1064.76	80	1608.26	0.707106	0	0.707107	0		$|
4785405	0	object/static/structure/naboo/nboo_imprv_pillar_pillar_s01.iff	0	990	80	1606	3.48E-07	0	1	0		$|
4785406	0	object/static/structure/naboo/nboo_imprv_pillar_pillar_s01.iff	0	972	80	1606	0.707107	0	-0.707106	0		$|
4785407	0	object/static/structure/naboo/archway_wide_s01.iff	0	981	80	1606	1.78E-06	0	0.999999	0		$|
4785408	0	object/static/structure/naboo/archway_wide_s01.iff	0	990	80	1615	0.707106	0	0.707107	0		$|
4785409	0	object/static/structure/naboo/nboo_imprv_pillar_pillar_s01.iff	0	990	80	1624	0.707106	0	0.707107	0		$|
4785410	0	object/static/structure/naboo/nboo_imprv_pillar_pillar_s01.iff	0	972	80	1624	0.707111	0	-0.707102	0		$|
4785411	0	object/static/structure/naboo/archway_wide_s01.iff	0	981	80	1624	2.00E-06	0	0.999999	0		$|
4785414	0	object/static/structure/naboo/nboo_imprv_pillar_lattice_s01.iff	0	981	80.6	1606	1	0	0	0		$|
4785415	0	object/static/structure/naboo/nboo_imprv_pillar_lattice_s01.iff	0	981	80.6	1624	1	0	0	0		$|
4785416	0	object/static/structure/naboo/nboo_imprv_pillar_lattice_s01.iff	0	990	80.6	1615	0.707107	0	0.707106	0		$|
4785419	0	object/tangible/terminal/terminal_mission.iff	0	989	80	1615	0.707107	0	-0.707106	0		$|
4785425	0	object/static/structure/naboo/elevated_walkway_cap_s01.iff	0	1013	80	1821	0.70711	0	0.707103	0		$|
4785426	0	object/static/structure/naboo/elevated_walkway_cap_s01.iff	0	1018	80	1826	1	0	0	0		$|
4785427	0	object/static/structure/naboo/elevated_walkway_cap_s01.iff	0	1008	80	1826	1	0	0	0		$|
4785428	0	object/static/structure/naboo/elevated_walkway_s01.iff	0	1013	79.98	1826	0.707113	0	0.7071	0		$|
4785429	0	object/static/structure/naboo/elevated_walkway_s01.iff	0	1013	80	1826	1	0	0	0		$|
4785430	0	object/static/structure/naboo/elevated_walkway_cap_s01.iff	0	1013	80	1831	0.70711	0	0.707103	0		$|
4785431	0	object/static/structure/naboo/fountain_naboo_style_1.iff	0	1013	88.2999	1826	1	0	0	0		$|
4785437	0	object/static/structure/naboo/nboo_imprv_pillar_lattice_s01.iff	0	1015	86.7687	1820	-0.5	0.5	0.5	0.5		$|
4785438	0	object/static/structure/naboo/nboo_imprv_pillar_lattice_s01.iff	0	1011	86.7686	1820	-0.5	0.5	-0.5	-0.5		$|
4785439	0	object/static/structure/naboo/nboo_imprv_pillar_lattice_s01.iff	0	1007	86.7687	1824	0.707107	-0.707106	0	0		$|
4785440	0	object/static/structure/naboo/nboo_imprv_pillar_lattice_s01.iff	0	1007	86.7686	1828	0.707107	0.707106	-7.73E-09	-7.73E-09		$|
4785441	0	object/static/structure/naboo/nboo_imprv_pillar_lattice_s01.iff	0	1015	86.7686	1832	0.5	0.5	0.5	-0.5		$|
4785442	0	object/static/structure/naboo/nboo_imprv_pillar_lattice_s01.iff	0	1011	86.7687	1832	-0.5	0.5	-0.5	-0.5		$|
4785443	0	object/static/structure/naboo/nboo_imprv_pillar_lattice_s01.iff	0	1019	86.7686	1824	0.707107	-0.707106	0	0		$|
4785444	0	object/static/structure/naboo/nboo_imprv_pillar_lattice_s01.iff	0	1019	86.7687	1828	0.707107	0.707107	0	0		$|
5025366	0	object/static/installation/mockup_factory_item_style_1.iff	0	715.852	80	1898.84	0.957469	0	-0.288538	0		$|
5025397	0	object/static/structure/general/tankfarm_s01.iff	0	735.309	80	2008.54	0.92388	0	-0.382683	0		$|
5025708	0	object/static/structure/naboo/nboo_imprv_pristine_wall_large_s02.iff	0	703.934	80.0017	2029.99	0.92388	0	-0.382683	0		$|
5025710	0	object/static/structure/naboo/nboo_imprv_pristine_wall_large_s02.iff	0	659.904	79.9975	1983.49	0.816544	0	-0.577283	0		$|
5025711	0	object/static/structure/naboo/nboo_imprv_pillar_pillar_s01.iff	0	660.08	79.9958	1984.14	0.816544	0	-0.577283	0		$|
5025712	0	object/static/structure/naboo/nboo_imprv_pillar_pillar_s01.iff	0	697.263	80.0382	2023.29	0.92388	0	-0.382683	0		$|
5095844	0	object/static/structure/general/streetlamp_large_style_02.iff	0	1018.06	80	1859.64	1	0	0	0		$|
5095847	0	object/tangible/furniture/all/frn_all_potted_plants_sml_s01.iff	0	1012.29	80	1858.89	1	0	0	0		$|
5095848	0	object/tangible/furniture/all/frn_all_potted_plants_sml_s01.iff	0	1023.88	80	1859.22	1	0	0	0		$|
5095850	0	object/tangible/furniture/all/frn_all_potted_plants_sml_s01.iff	0	1017.81	80.0343	1908.62	1	0	0	0		$|
5095851	0	object/static/structure/general/streetlamp_large_style_02.iff	0	1019.9	80.0589	1908.73	3.20E-08	0	1	0		$|
5095852	0	object/static/structure/general/bench_generic_style_1.iff	0	1014.53	80.0549	1908.24	0.999987	0	-0.00499986	0		$|
5095853	0	object/tangible/furniture/all/frn_all_potted_plants_sml_s01.iff	0	1021.6	80.0651	1908.55	1	0	0	0		$|
5095855	0	object/static/structure/naboo/streetlamp_naboo_theed_style_1.iff	0	894.07	80	1810.35	1	0	0	0		$|
5095856	0	object/static/structure/naboo/streetlamp_naboo_theed_style_1.iff	0	1026.87	80	1672.07	1	0	0	0		$|
5095857	0	object/static/structure/naboo/streetlamp_naboo_theed_style_1.iff	0	1140.25	80	1623.9	1	0	0	0		$|
5095859	0	object/static/structure/tatooine/guild_statue_free_style_01.iff	0	1033.76	81.4831	1646.2	3.20E-08	0	1	0		$|
5095861	0	object/static/structure/general/streetlamp_small_style_02.iff	0	1033.71	81.7483	1645.25	1	0	0	0		$|
5095876	0	object/static/structure/general/streetlamp_large_style_02.iff	0	879.207	79.9684	1822.36	0.707107	0	-0.707106	0		$|
5095877	0	object/static/structure/general/streetlamp_large_style_02.iff	0	836.845	80.1359	1822.29	0.707107	0	-0.707107	0		$|
5095881	0	object/static/structure/general/droid_probedroid_powerdown.iff	0	918.52	80	1859.07	0.986418	0	-0.164252	0		$|
5095882	0	object/static/structure/tatooine/debris_tatt_crate_1.iff	0	912.449	80	1859.23	1	0	0	0		$|
5095883	0	object/static/structure/tatooine/debris_tatt_crate_metal_1.iff	0	911.36	80	1858.22	0.935897	0	-0.352274	0		$|
5095884	0	object/static/structure/tatooine/debris_tatt_drum_dented_1.iff	0	911.064	80	1856.84	1	0	0	0		$|
5095886	0	object/static/structure/tatooine/debris_tatt_drum_storage_2.iff	0	912.923	80	1858.51	0.968912	0	-0.247404	0		$|
5095931	0	object/static/structure/naboo/streetlamp_naboo_theed_style_1.iff	0	1153.36	80	1668.06	1	0	0	0		$|
5265435	0	object/tangible/terminal/terminal_bazaar.iff	0	862.899	80.2572	1925.42	0.707107	0	0.707107	0		$|
5265436	0	object/static/structure/tatooine/debris_tatt_crate_1.iff	0	862.313	80.2808	1930.6	0.955336	0	-0.29552	0		$|
5265437	0	object/static/structure/tatooine/debris_tatt_crate_metal_1.iff	0	862.927	80.2783	1931.19	0.802096	0	0.597195	0		$|
5265438	0	object/static/structure/tatooine/debris_tatt_drum_dented_1.iff	0	862.131	80.2894	1931.78	1	0	0	0		$|
5365449	0	object/static/structure/naboo/gate_narrow_s01.iff	0	716.812	80	1859.66	0.926798	0	0.375559	0		$|
5365452	0	object/static/structure/naboo/nboo_imprv_pillar_wall_small_s01.iff	0	720.948	80	1855.64	0.926798	0	0.375559	0		$|
5365453	0	object/static/structure/naboo/nboo_imprv_pillar_wall_small_s01.iff	0	712.678	80	1863.7	-0.375559	0	0.926798	0		$|
5365454	0	object/static/structure/naboo/nboo_imprv_pillar_wall_small_s01.iff	0	720.008	79.9981	1850.45	0.919102	0	-0.394019	0		$|
5365456	0	object/static/structure/general/streetlamp_large_style_01_on.iff	0	719.986	80	1850.44	-0.367013	0	0.930216	0		$|
5365459	0	object/static/structure/general/planter_generic_style_1.iff	0	711.314	80	1858.3	-0.475732	0	0.87959	0		$|
5365460	0	object/static/structure/corellia/corl_tent_small.iff	0	716.541	80	1852.76	0.992198	0	-0.124675	0		$|
5365462	0	object/static/item/item_container_inorganic_water.iff	0	717.362	80	1855.28	1	0	0	0		$|
5365463	0	object/static/item/item_container_inorganic_minerals.iff	0	717.114	80	1852.43	0.979061	0	0.203567	0		$|
5365464	0	object/static/item/item_container_inorganic_minerals.iff	0	715.46	80	1853.08	-0.413046	0	0.91071	0		$|
5365465	0	object/static/item/wp_carbine_ee3_combined.iff	0	714.986	80.9041	1852.71	0.768054	0	0	-0.640385		$|
5385721	0	object/static/structure/general/escape_pod.iff	0	419.348	81.8722	1609.27	0.317425	0.794267	0.510029	-0.0908358		$|
5385722	0	object/static/structure/general/escape_pod_door.iff	0	421.273	81.3862	1606.14	-0.595221	0.334332	0.250602	0.686391		$|
5405672	0	object/static/item/item_bottle_fat.iff	0	1160.25	80.1581	1777.7	0.663731	0	0	0.747971		$|
5405704	0	object/static/item/item_bottle_pear.iff	0	1160.44	80	1777.55	1	0	0	0		$|
5405738	0	object/static/item/item_bottle_tall.iff	0	1159.48	80	1779.66	1	0	0	0		$|
5406180	0	object/static/item/item_container_energy_liquid.iff	0	1164.08	80.0001	1776.17	1	0	0	0		$|
5406422	0	object/static/item/item_container_energy_liquid.iff	0	1164.44	80	1776.24	0.944304	-0.328732	-0.0146214	0.00334647		$|
5407064	0	object/static/item/item_container_energy_liquid.iff	0	1164.71	80.1265	1775.79	0.710913	0	0	0.70328		$|
5407108	0	object/static/structure/tatooine/debris_tatt_crate_1.iff	0	1160.07	80	1780.16	0.908966	0	-0.416871	0		$|
5407110	0	object/static/structure/tatooine/debris_tatt_drum_dented_1.iff	0	1160.79	80	1781.12	1	0	0	0		$|
5407112	0	object/static/structure/general/trash_pile_s01.iff	0	1160.5	80	1778.54	0.980067	0	0.198669	0		$|
5555737	0	object/static/item/item_basket_shallow.iff	0	972.595	80	1754.21	1	0	0	0		$|
5555738	0	object/static/item/item_bottle_fat.iff	0	972.004	80	1755.34	1	0	0	0		$|
5555739	0	object/static/item/item_bottle_pear.iff	0	972.247	80	1755.54	1	0	0	0		$|
5555740	0	object/static/item/item_bottle_tall.iff	0	972.344	80	1755.22	1	0	0	0		$|
5555741	0	object/static/item/item_bread_loaf.iff	0	972.542	80.0316	1754.04	1	0	0	0		$|
5555742	0	object/static/item/item_con_bowl_full.iff	0	972.905	80	1755.11	1	0	0	0		$|
5555743	0	object/static/item/item_con_drink_flask.iff	0	972.967	80	1753.46	1	0	0	0		$|
5555744	0	object/static/item/item_con_pitcher_full.iff	0	973.146	80	1753.62	1	0	0	0		$|
5555745	0	object/static/item/item_food_fruit_s01.iff	0	972.636	80.0632	1754.27	1	0	0	0		$|
5555746	0	object/static/item/item_food_muffins.iff	0	972.161	80.3479	1770.49	1	0	0	0		$|
5555747	0	object/static/item/item_jar_berries.iff	0	972.194	80	1769.88	1	0	0	0		$|
5555748	0	object/static/item/item_jar_bugs.iff	0	972.285	80	1770.08	1	0	0	0		$|
5555749	0	object/static/item/item_jar_funk.iff	0	972.442	80	1769.9	1	0	0	0		$|
5555750	0	object/static/item/item_con_plate_casserole.iff	0	972.551	80.3479	1770.66	1	0	0	0		$|
5555751	0	object/static/item/item_con_tato_bowl_full_s01.iff	0	973.016	80	1770.09	1	0	0	0		$|
5555752	0	object/static/item/item_container_inorganic_chemicals.iff	0	972.351	80	1770.57	-0.589788	0	0.807558	0		$|
5555753	0	object/static/item/item_crate_clothing_small.iff	0	869.34	80	1721.11	1	0	0	0		$|
5555754	0	object/static/item/item_cloth_patches.iff	0	869.89	80	1721.06	1	0	0	0		$|
5555755	0	object/static/item/item_sewing_utensils.iff	0	869.803	80.0316	1720.68	-0.678557	0.734548	0	0		$|
5555756	0	object/static/item/item_raw_cloth.iff	0	875.613	80	1734.59	1	0	0	0		$|
5555757	0	object/static/item/item_sewing_utensils_lg_01.iff	0	876.086	80.0316	1734.48	-0.703845	0.710353	0	0		$|
5555758	0	object/static/item/item_crate_clothing_small.iff	0	876.754	80	1734.2	1	0	0	0		$|
5555759	0	object/static/item/item_rifle.iff	0	876.443	80.0316	1689.8	0.678557	0	0	0.734548		$|
5555760	0	object/static/item/item_ryyk_blade.iff	0	874.851	80.1897	1688.81	0.984727	0	0	-0.174108		$|
5555761	0	object/static/item/item_vibroaxe.iff	0	876.511	81.0436	1690.32	0.981048	0	0	-0.193767		$|
5555762	0	object/static/item/wp_carbine_dh17_combined.iff	0	869.392	80.0316	1697.68	0.700285	0	0	0.713864		$|
5555763	0	object/static/item/item_vibrolance.iff	0	868.321	80.9171	1696.59	0.992809	0	0	0.119712		$|
5555764	0	object/static/item/wp_rifle_bowcaster_combined.iff	0	869.526	80	1696.93	1	0	0	0		$|
5775352	0	object/static/structure/naboo/streetlamp_naboo_theed_style_1.iff	0	869.458	80.0805	1864.59	1	0	0	0		$|
5775357	0	object/static/structure/general/streetlamp_small_blue_style_02.iff	0	947.804	86.6724	1852.75	-3.20E-08	1	0	0		$|
5775358	0	object/static/structure/naboo/streetlamp_naboo_theed_style_1.iff	0	934.419	80	1826.44	1	0	0	0		$|
5775359	0	object/static/structure/naboo/streetlamp_naboo_theed_style_1.iff	0	923.684	80.0177	1886.06	1	0	0	0		$|
5775360	0	object/static/structure/naboo/streetlamp_naboo_theed_style_1.iff	0	879.528	80.2422	1890.26	1	0	0	0		$|
5775363	0	object/static/structure/general/streetlamp_small_style_02.iff	0	1013.04	89.5645	1826	1	0	0	0		$|
6035353	0	object/static/structure/naboo/streetlamp_naboo_theed_style_1.iff	0	973.211	80	1842.88	1	0	0	0		$|
6035362	0	object/static/structure/naboo/streetlamp_naboo_theed_style_1.iff	0	1021.79	80	1779.27	1	0	0	0		$|
6035363	0	object/static/structure/naboo/streetlamp_naboo_theed_style_1.iff	0	1005.17	80	1779.44	1	0	0	0		$|
6035364	0	object/static/structure/naboo/streetlamp_naboo_theed_style_1.iff	0	1060.84	80	1736.5	1	0	0	0		$|
6035365	0	object/static/structure/naboo/streetlamp_naboo_theed_style_1.iff	0	1060.74	80	1697.07	1	0	0	0		$|
6035369	0	object/static/structure/naboo/streetlamp_naboo_theed_style_1.iff	0	981.166	80	1615.51	1	0	0	0		$|
6035370	0	object/static/structure/naboo/streetlamp_naboo_theed_style_1.iff	0	1082.44	80	1607.67	1	0	0	0		$|
6035371	0	object/static/structure/naboo/streetlamp_naboo_theed_style_1.iff	0	979.627	80	1661.7	1	0	0	0		$|
6035372	0	object/static/structure/naboo/streetlamp_naboo_theed_style_1.iff	0	1071.42	80	1676.64	1	0	0	0		$|
6035375	0	object/static/structure/naboo/streetlamp_naboo_theed_style_1.iff	0	1105.79	80.5692	1737.46	1	0	0	0		$|
6035376	0	object/static/structure/naboo/streetlamp_naboo_theed_style_1.iff	0	1124.28	80.5609	1737.46	1	0	0	0		$|
6035377	0	object/static/structure/naboo/streetlamp_naboo_theed_style_1.iff	0	933.18	82.4734	1691.88	1	0	0	0		$|
6035378	0	object/static/structure/naboo/streetlamp_naboo_theed_style_1.iff	0	954.909	82.4937	1732.08	1	0	0	0		$|
6035379	0	object/static/structure/naboo/streetlamp_naboo_theed_style_1.iff	0	933.184	82.4406	1732.16	1	0	0	0		$|
6035380	0	object/static/structure/naboo/streetlamp_naboo_theed_style_1.iff	0	954.878	82.4777	1691.9	1	0	0	0		$|
6035382	0	object/static/structure/naboo/streetlamp_naboo_theed_style_1.iff	0	1181.4	80.0026	1738.28	1	0	0	0		$|
6035385	0	object/static/structure/naboo/streetlamp_naboo_theed_style_1.iff	0	1087.59	80	1644.47	1	0	0	0		$|
6035386	0	object/static/structure/naboo/streetlamp_naboo_theed_style_1.iff	0	1027.96	80	1582.3	1	0	0	0		$|
6035387	0	object/static/structure/naboo/streetlamp_naboo_theed_style_1.iff	0	910.209	80	1650.55	1	0	0	0		$|
6035389	0	object/static/structure/naboo/streetlamp_naboo_theed_style_1.iff	0	893.008	80	1742.76	1	0	0	0		$|
6035390	0	object/static/structure/naboo/streetlamp_naboo_theed_style_1.iff	0	913.929	80.0632	1782.18	1	0	0	0		$|
6035391	0	object/static/structure/naboo/streetlamp_naboo_theed_style_1.iff	0	966.684	80	1777.14	1	0	0	0		$|
6445428	0	object/tangible/furniture/all/frn_bench_generic.iff	0	913.191	80.4551	1926.4	-0.382683	0	0.92388	0		$|
6445429	0	object/tangible/furniture/all/frn_bench_generic.iff	0	915.405	80.4941	1924.11	-0.382683	0	0.92388	0		$|
6445430	0	object/tangible/furniture/all/frn_bench_generic.iff	0	917.646	80.5265	1921.98	-0.382683	0	0.92388	0		$|
6665416	0	object/static/structure/naboo/nboo_imprv_flagpole_s01.iff	0	979.116	80	1635.28	1	0	0	0		$|
6725364	0	object/tangible/furniture/all/frn_bench_generic.iff	0	1015.32	80	1859.49	0	0	1	0		$|
7555511	0	object/tangible/terminal/terminal_mission_scout.iff	0	1031.1	80	1749.01	0.707107	0	-0.707106	0		$|
7555513	0	object/tangible/terminal/terminal_mission_scout.iff	0	1032.8	80	1748.98	0.707107	0	0.707106	0		$|
7555515	0	object/tangible/terminal/terminal_mission_artisan.iff	0	997.813	80	1749.14	0.707107	0	0.707107	0		$|
7555517	0	object/tangible/terminal/terminal_mission_artisan.iff	0	996.304	80	1748.83	0.707107	0	-0.707106	0		$|
7555519	0	object/tangible/terminal/terminal_mission_scout.iff	0	981.049	80	1623.04	-3.20E-08	0	1	0		$|
7555521	0	object/tangible/terminal/terminal_mission_scout.iff	0	981.002	80	1606.82	1	0	0	0		$|
7555523	0	object/tangible/terminal/terminal_mission_artisan.iff	0	973.374	80	1606.07	0.707107	0	0.707106	0		$|
7555525	0	object/tangible/terminal/terminal_mission_entertainer.iff	0	973.694	80	1610.45	0.707107	0	0.707107	0		$|
7555527	0	object/tangible/terminal/terminal_mission_entertainer.iff	0	973.772	80	1619.8	0.707107	0	0.707106	0		$|
7555529	0	object/tangible/terminal/terminal_mission_artisan.iff	0	973.392	80	1624.14	0.707107	0	0.707106	0		$|
7555531	0	object/tangible/terminal/terminal_mission_artisan.iff	0	816.318	80	1986.28	0.851111	0	-0.524986	0		$|
7555533	0	object/tangible/terminal/terminal_mission_artisan.iff	0	808.577	80	1990.81	0.512161	0	0.858889	0		$|
7555535	0	object/static/structure/naboo/gungan_statue_s01.iff	0	794.266	80	1997.68	-0.233617	0	0.972329	0		$|
7555537	0	object/tangible/terminal/terminal_mission_scout.iff	0	840.861	80.0382	1814.73	1	0	0	0		$|
7555539	0	object/tangible/terminal/terminal_mission_artisan.iff	0	838.746	80.0563	1814.64	1	0	0	0		$|
7555541	0	object/tangible/terminal/terminal_mission_entertainer.iff	0	836.903	80.0524	1814.81	1	0	0	0		$|
7555543	0	object/tangible/terminal/terminal_mission_scout.iff	0	874.936	80	1814.72	1	0	0	0		$|
7555545	0	object/tangible/terminal/terminal_mission_entertainer.iff	0	878.943	80	1814.88	1	0	0	0		$|
7555547	0	object/tangible/terminal/terminal_mission_artisan.iff	0	876.844	80	1814.58	1	0	0	0		$|
7555549	0	object/tangible/terminal/terminal_mission_entertainer.iff	0	1112.97	80.6008	1741.05	-3.20E-08	0	1	0		$|
7555551	0	object/tangible/terminal/terminal_mission_entertainer.iff	0	1114.97	80.6008	1741.05	0	0	1	0		$|
7555553	0	object/tangible/terminal/terminal_mission_entertainer.iff	0	1116.97	80.6008	1741.05	0	0	1	0		$|
7555562	0	object/tangible/furniture/all/frn_all_toolchest_med_s01.iff	0	1024.97	80	1651.93	1	0	0	0		$|
7555563	0	object/static/item/item_tool_magnetite_cleaner.iff	0	1025.66	80	1652.09	0.947651	0	0.319309	0		$|
7555564	0	object/static/item/item_tool_instrument_calibrator.iff	0	1025.02	81.0119	1652.01	0.974794	0	-0.223106	0		$|
7555566	0	object/static/item/item_crate_spice.iff	0	934.577	80	1824.94	1	0	0	0		$|
7555567	0	object/static/item/item_crate_spice.iff	0	933.447	80	1824.48	1	0	0	0		$|
7555568	0	object/static/item/item_crate_spice.iff	0	933.947	80	1827.63	-3.20E-08	0	1	0		$|
7665404	0	object/soundobject/soundobject_cloning_facility.iff	0	1134.92	80	1613.2	1	0	0	0		$|
7665464	0	object/soundobject/soundobject_starport_exterior.iff	0	795.174	80	1956.66	1	0	0	0		$|
8266011	0	object/tangible/furniture/all/frn_bench_generic.iff	0	1023.9	80.0599	1908.29	1	0	0	0		$|
8305435	0	object/static/structure/naboo/poi_nboo_tent_small.iff	0	888.958	80	1840.87	1	0	0	0		$|
8305436	0	object/static/structure/general/banner_imperial_style_01.iff	0	886.337	80	1843.28	0.902611	0	-0.430458	0		$|
8305440	0	object/tangible/furniture/tatooine/frn_tato_table_small_style_01.iff	0	890.623	80	1839.21	1	0	0	0		$|
8305442	0	object/static/item/item_carbine_imperial_e11.iff	0	890.327	80.6641	1839.17	0.710913	0	0	0.70328		$|
8305443	0	object/static/item/item_con_plate_casserole.iff	0	890.875	80.6325	1839.46	1	0	0	0		$|
8305444	0	object/static/item/item_con_drink_flask.iff	0	890.554	80.6009	1839.66	1	0	0	0		$|
8305445	0	object/static/item/item_datapad_s2.iff	0	890.604	80.6325	1838.92	1	0	0	0		$|
8305446	0	object/static/item/item_container_energy_gas.iff	0	890.082	80	1837.79	1	0	0	0		$|
8305447	0	object/static/item/item_container_energy_solid.iff	0	889.93	80.7273	1837.79	1	0	0	0		$|
8305448	0	object/static/item/item_container_inorganic_gas.iff	0	888.901	80.8855	1837.64	1	0	0	0		$|
8305449	0	object/static/structure/tatooine/debris_tatt_drum_storage_1.iff	0	888.939	80	1837.9	1	0	0	0		$|
8305450	0	object/static/structure/tatooine/debris_tatt_crate_metal_1.iff	0	889.417	80	1837.17	1	0	0	0		$|
8305451	0	object/static/item/item_chair_metal_wheeled_01.iff	0	889.91	80	1841.16	0.714421	0	-0.699716	0		$|
9075368	0	object/static/structure/naboo/nboo_imprv_flagpole_s01.iff	0	1032.57	93.2473	1743.88	1	0	0	0		$|
9075369	0	object/static/structure/naboo/nboo_imprv_flagpole_s01.iff	0	996.495	93.2473	1743.92	1	0	0	0		$|
9075370	0	object/static/structure/naboo/nboo_imprv_flagpole_s01.iff	0	761.279	105.684	1867.2	1	0	0	0		$|
9075371	0	object/static/structure/naboo/nboo_imprv_flagpole_s01.iff	0	699.073	103.468	1947.28	1	0	0	0		$|
9075372	0	object/static/structure/naboo/nboo_imprv_flagpole_s01.iff	0	757.506	103.512	2005.21	1	0	0	0		$|
9075373	0	object/static/structure/naboo/nboo_imprv_flagpole_s01.iff	0	839.666	109.67	1953.18	1	0	0	0		$|
9075374	0	object/static/structure/naboo/nboo_imprv_flagpole_s01.iff	0	968.807	92.6094	1597.28	1	0	0	0		$|
9075375	0	object/static/structure/naboo/nboo_imprv_flagpole_s01.iff	0	968.829	92.6094	1633.03	1	0	0	0		$|
9075376	0	object/static/structure/naboo/nboo_imprv_flagpole_s01.iff	0	876.029	93.0433	1813.57	1	0	0	0		$|
9075377	0	object/static/structure/naboo/nboo_imprv_flagpole_s01.iff	0	840.148	93.1188	1813.48	1	0	0	0		$|
9075378	0	object/static/structure/naboo/nboo_imprv_flagpole_s01.iff	0	905.156	89.248	1929.14	1	0	0	0		$|
218	0	object/building/naboo/filler_building_naboo_theed_style_8.iff	0	947.823	80	1824.16	0.707107	0	-0.707106	0		$|
1380053	0	object/static/item/item_armor_bone_helmet.iff	0	895.184	79.5889	1730.56	1	0	0	0		$|
1380054	0	object/static/item/item_armor_composite_chestplate.iff	0	891.041	78.9881	1732.99	0.98215	-0.183799	0.039441	0.00659976		$|
1380056	0	object/static/item/item_armor_composite_helmet.iff	0	892.597	80.0004	1734.6	0.738469	0	0.674287	0		$|
4615355	0	object/building/naboo/filler_building_naboo_theed_style_10.iff	0	1046.31	80	1671.72	1	0	0	0		$|
4615358	0	object/building/naboo/filler_building_naboo_theed_style_4.iff	0	1009.31	80	1671.72	1	0	0	0		$|
4615387	0	object/building/naboo/thm_nboo_block_bldg_32x16_style_01.iff	0	983	80	1652	1	0	0	0		$|
4635369	0	object/building/naboo/filler_building_naboo_theed_style_6.iff	0	965.033	80.0283	1797.12	0.707108	0	0.707106	0		$|
4635373	0	object/building/naboo/filler_building_naboo_theed_style_5.iff	0	1078.31	80	1661.72	1	0	0	0		$|
4635375	0	object/building/naboo/thm_nboo_block_bldg_64x32_s02.iff	0	924.293	80	1797.73	1	0	0	0		$|
4635378	0	object/building/naboo/thm_nboo_block_bldg_64x32_style_01.iff	0	894.288	79.9939	1712.61	0.707108	0	0.707106	0		$|
4635382	0	object/building/naboo/filler_building_naboo_theed_style_8.iff	0	1004	80	1774	1	0	0	0		$|
4635383	0	object/building/naboo/filler_building_naboo_theed_style_10.iff	0	1063.86	80	1767.83	0.707108	0	-0.707106	0		$|
4635387	0	object/building/naboo/thm_nboo_block_bldg_32x16_style_02.iff	0	982.527	80	1777.98	1	0	0	0		$|
4635393	0	object/building/naboo/filler_building_naboo_theed_style_8.iff	0	1004	80	1785	1	0	0	0		$|
4635416	0	object/building/naboo/thm_nboo_block_bldg_32x16_style_01.iff	0	898.208	80	1764.12	0.707107	0	-0.707106	0		$|
4635418	0	object/building/naboo/hospital_naboo_style01.iff	0	1017.51	80	1883.85	-3.20E-08	0	1	0		$|
4635449	0	object/building/naboo/thm_nboo_block_bldg_32x16_style_01.iff	0	743	79.8581	1836	0.981491	0	0.191509	0		$|
4635451	0	object/building/naboo/thm_nboo_block_bldg_64x32_s02.iff	0	665	79.9622	1916	0.838976	0	0.544169	0		$|
4635457	0	object/building/naboo/thm_nboo_block_bldg_64x32_s02.iff	0	697	79.984	1863	-0.382683	0	0.92388	0		$|
4635463	0	object/building/naboo/filler_building_naboo_theed_style_4.iff	0	654	79.8592	1966	0.621298	0	0.783574	0		$|
4635465	0	object/building/naboo/filler_building_naboo_theed_style_5.iff	0	712	79.9136	2041	-0.382683	0	0.92388	0		$|
4635466	0	object/building/naboo/thm_nboo_block_bldg_64x32_style_01.iff	0	798.758	80.1183	2040.73	-0.259689	0	0.965693	0		$|
4635471	0	object/building/naboo/thm_nboo_block_bldg_32x16_style_02.iff	0	840	80.431	2010	-0.382683	0	0.92388	0		$|
4635479	0	object/building/naboo/filler_building_naboo_theed_style_3.iff	0	806.956	79.7917	1821.31	1	0	0	0		$|
4635480	0	object/building/naboo/filler_building_naboo_theed_style_10.iff	0	867	80.376	1984	-0.382683	0	0.92388	0		$|
4635501	0	object/building/naboo/thm_nboo_block_bldg_32x16_style_01.iff	0	1081.77	80	1624.68	0.707107	0	-0.707106	0		$|
4635503	0	object/building/naboo/thm_nboo_block_bldg_32x16_style_02.iff	0	990.813	80	1684.74	0.707108	0	-0.707106	0		$|
4635507	0	object/building/naboo/thm_nboo_block_bldg_64x32_style_01.iff	0	1057.62	79.9204	1823.33	0.707108	0	-0.707105	0		$|
4635511	0	object/building/naboo/filler_building_naboo_theed_style_4.iff	0	1032.63	80	1780.09	7.34E-08	0	1	0		$|
4635534	0	object/building/naboo/filler_building_naboo_theed_style_10.iff	0	984.779	79.9902	1573.6	1	0	0	0		$|
4635537	0	object/building/naboo/filler_building_naboo_theed_style_6.iff	0	1080.54	79.9714	1589.42	0.707108	0	-0.707105	0		$|
4635538	0	object/building/naboo/thm_nboo_block_bldg_64x32_s02.iff	0	1040.15	80	1568.28	-3.20E-08	0	1	0		$|
4635548	0	object/building/naboo/thm_nboo_block_bldg_64x32_style_01.iff	0	1176.34	79.7631	1685.06	0.707109	0	-0.707105	0		$|
4635551	0	object/building/naboo/filler_building_naboo_theed_style_4.iff	0	1181	79.6992	1728	0.707108	0	-0.707105	0		$|
4635553	0	object/building/naboo/filler_building_naboo_theed_style_4.iff	0	1181	79.7909	1762	0.707108	0	-0.707106	0		$|
4635557	0	object/building/naboo/thm_nboo_block_bldg_32x16_style_02.iff	0	1165	79.7647	1786	-3.20E-08	0	1	0		$|
4635562	0	object/building/naboo/thm_nboo_block_bldg_32x16_style_01.iff	0	1172	79.8081	1817	0.707108	0	-0.707105	0		$|
4635564	0	object/building/naboo/thm_nboo_block_bldg_64x32_style_01.iff	0	1107	79.9556	1871	-5.23E-08	0	1	0		$|
4635567	0	object/building/naboo/filler_building_naboo_theed_style_10.iff	0	1162	79.8433	1855	-0.382684	0	0.923879	0		$|
4635570	0	object/building/naboo/thm_nboo_block_bldg_32x16_style_02.iff	0	1084.64	80	1696.24	0.707107	0	-0.707106	0		$|
4635573	0	object/building/naboo/filler_building_naboo_theed_style_4.iff	0	1102	80	1665	1	0	0	0		$|
4635588	0	object/building/naboo/filler_building_naboo_theed_style_3.iff	0	886.873	79.8223	1655.2	0.707107	0	0.707107	0		$|
4635602	0	object/building/naboo/thm_nboo_block_bldg_64x32_style_01.iff	0	956.851	80	1848.81	-0.707107	0	0.707107	0		$|
4635606	0	object/building/naboo/thm_nboo_block_bldg_64x32_s02.iff	0	900.876	79.7072	1872.7	1	0	0	0		$|
4635610	0	object/building/naboo/filler_building_naboo_theed_style_10.iff	0	901.363	80.0051	1840.66	0.707108	0	-0.707106	0		$|
4635613	0	object/building/naboo/filler_building_naboo_theed_style_4.iff	0	771.527	79.8907	1824.72	0.99875	0	0.0499792	0		$|
4785382	0	object/building/naboo/thm_nboo_block_bldg_64x32_style_01.iff	0	943.191	80.4346	1914.14	0.92388	0	0.382683	0		$|
