spawns	name	room	loc_x	loc_y	loc_z	yaw	script	mood	animation_mood	respawn_time	spawn_objvar	special_room	special_room_script	room_objvar	room_objvar_name	room_objvar_value	planet_level
s	s	s	f	f	f	f	s	s	s	i	s	s	s	s	s	s	i[0]
bane_back_spider		world	6864.14	505.188	1174.53	-150	theme_park.dungeon.generic_death			900	int:ai.defaultCalmBehavior=2						1
bane_back_spider		world	6866.14	505.188	1176.53	98	theme_park.dungeon.generic_death			900	int:ai.defaultCalmBehavior=2						1
bane_back_spider		world	6864.14	505.188	1172.53	98	theme_park.dungeon.generic_death			900	int:ai.defaultCalmBehavior=2						1
