quest_type	convo	quest_giver_convo	quest_npc_convo	overall_objvar	temp_objvar	deliver_object	retrieve_object	player_script	npc_script	npc_type	npc_name	reward	reward_objvar	reward_objvar_value	reward2	reward2_objvar	reward2_objvar_value	reward3	reward3_objvar	reward3_objvar_value	reward4	reward4_objvar	reward4_objvar_value	faction reward	faction_reward_amount	faction_reward2	faction_reward2_amount	faction_reward3	faction_reward3_amount	faction_reward4	faction_reward4_amount	credits	quest_x_loc	quest_y_loc	quest_z_loc	quest_planet_loc	quest_leg	extra_npc	extra_npc_disposition	extra_npc2	extra_npc2_disposition	extra_npc3	extra_npc3_disposition	extra_npc4	extra_npc4_disposition	extra_spawn	spawn_delay	spawn_frequency	spawn_cap	spawn_radius	spawn_script	spawn_action1	spawn_action2	spawn_action3	spawn_action4	encounter_table
s	s	s[normal]	s[normal]	s	s	s[none]	s[none]	s	s	s	s	s[none]	s	i	s[none]	s	i	s[none]	s	i	s[none]	s	i	s[none]	i	s[none]	i	s[none]	i	s[none]	i	i[0]	i	i	i	s	i	s	s	s	s	s	s	s	s	s[none]	i	i	i	i	s	s	s	s	s	s

smuggle	static_npc/naboo/bardo_klinj			static.bardo_klinj	bardo_klinj	object/tangible/mission/quest_item/bardo_klinj_q1_needed.iff		npc.static_quest.quest_player	npc.static_quest.quest_npc	imperial_noncom	Imperial Courier																					100																								
retrieve	static_npc/naboo/bardo_klinj			static.bardo_klinj	bardo_klinj		object/tangible/mission/quest_item/bardo_klinj_q2_needed.iff	npc.static_quest.quest_player	npc.static_quest.quest_npc	imperial_noncom	Imperial Courier																					100						thug	aggressive																	
retrieve	static_npc/naboo/bardo_klinj			static.bardo_klinj	bardo_klinj		object/tangible/mission/quest_item/bardo_klinj_q3_needed.iff	npc.static_quest.quest_player	npc.static_quest.quest_npc	gungan_thug	Mubarr																					100						gungan_guard	aggressive	gungan_guard	aggressive															
escort	static_npc/naboo/bardo_klinj			static.bardo_klinj	bardo_klinj			npc.static_quest.quest_player	npc.static_quest.quest_npc	twilek_slave	Major domo Xan'lak																					100						thug	aggressive	thug	aggressive	thug	aggressive	thug	aggressive											
